<svg width="183" height="36" viewBox="0 0 183 36" fill="none" xmlns="http://www.w3.org/2000/svg">
<path d="M35.7963 15.244H5.66221C6.1952 12.8319 7.42791 10.63 9.20639 8.91338C10.9849 7.19673 13.2303 6.0414 15.6623 5.59165C18.0943 5.14191 20.6051 5.41768 22.8811 6.38453C25.1571 7.35139 27.0975 8.96648 28.4599 11.0281L33.0118 8.01853C30.7378 4.60905 27.3671 2.07658 23.4566 0.839728C19.5462 -0.397129 15.3302 -0.264323 11.5056 1.21619C7.68103 2.69671 4.47674 5.4363 2.42243 8.98212C0.368123 12.5279 -0.41322 16.6677 0.207555 20.7171H30.3417C29.8191 23.1399 28.5919 25.3546 26.814 27.0835C25.036 28.8124 22.7865 29.9784 20.3476 30.4355C17.9087 30.8925 15.389 30.6202 13.1044 29.6526C10.8199 28.6851 8.87229 27.0653 7.50586 24.9966L3.00482 28.0062C5.02408 31.0229 7.90946 33.3595 11.2822 34.7091C14.655 36.0588 18.3575 36.3584 21.9039 35.5688C25.4502 34.7791 28.6746 32.937 31.1539 30.2843C33.6332 27.6316 35.2515 24.2922 35.7963 20.7045C35.9324 19.8135 36.0004 18.9136 35.9998 18.0123C36.0043 17.0857 35.9363 16.1601 35.7963 15.244Z" fill="url(#paint0_linear)"/>
<path d="M107.722 9.28448V12.0357C108.385 11.0798 109.284 10.3011 110.336 9.77103C111.389 9.24095 112.562 8.97641 113.746 9.00165C117.486 9.00165 121 11.65 121 16.7152V27H118.278V16.7281C118.333 16.0505 118.243 15.3692 118.012 14.7277C117.781 14.0861 117.415 13.4985 116.938 13.0025C116.46 12.5064 115.882 12.1127 115.239 11.8466C114.596 11.5805 113.903 11.4479 113.205 11.4571C112.478 11.4412 111.755 11.5692 111.081 11.8333C110.407 12.0974 109.795 12.4921 109.282 12.9935C108.769 13.4948 108.366 14.0924 108.098 14.7499C107.83 15.4073 107.702 16.111 107.722 16.8181V26.8843H105V9.28448H107.722Z" fill="#201E2E"/>
<path d="M137.682 21.6854H140.489C139.927 23.3097 138.862 24.7047 137.453 25.6609C136.045 26.6171 134.37 27.0827 132.679 26.9879C131.518 27.0169 130.363 26.8027 129.286 26.3587C128.21 25.9146 127.235 25.2502 126.422 24.4067C125.608 23.5632 124.975 22.5586 124.559 21.4554C124.144 20.3522 123.957 19.174 124.008 17.994C124.008 13.0086 127.264 9 132.504 9C137.744 9 141 13.0086 141 17.994V19.0469H126.641C126.764 20.5855 127.46 22.0182 128.587 23.053C129.714 24.0878 131.186 24.6467 132.704 24.6158C133.722 24.6598 134.731 24.4074 135.613 23.8883C136.494 23.3692 137.212 22.605 137.682 21.6854ZM126.678 16.6113H138.33C138.145 15.1735 137.451 13.8534 136.38 12.8971C135.308 11.9408 133.93 11.4134 132.504 11.4134C131.078 11.4134 129.701 11.9408 128.629 12.8971C127.557 13.8534 126.864 15.1735 126.678 16.6113Z" fill="#201E2E"/>
<path d="M154.506 13.4198L150.263 27H147.344L142 10H144.721L148.791 23.8025L153.108 10H155.892L160.209 23.8025L164.279 10H167L161.681 26.9012H158.762L154.506 13.4198Z" fill="#201E2E"/>
<path d="M182.444 13.9287H179.741C179.522 12.4298 178.448 11.2103 175.409 11.2103C172.642 11.2103 171.181 12.0106 171.181 13.7509C171.181 17.9301 183 15.2117 183 21.7664C183 25.1581 180.155 27 175.759 27C170.819 27 168.233 24.307 168 21.2456H170.767C170.948 23.024 172.293 24.7643 175.746 24.7643C177.207 24.7643 180.284 24.3832 180.284 22.0078C180.284 17.6507 168.466 20.3691 168.466 13.9922C168.466 10.8546 170.845 9 175.422 9C180 9 182.134 11.3881 182.444 13.9287Z" fill="#201E2E"/>
<path d="M68.9994 18.0974C69.037 13.55 67.3429 9.15791 64.2594 5.80848C61.176 2.45904 56.9329 0.402003 52.3877 0.0529776C47.8424 -0.296048 43.3338 1.08896 39.7727 3.92817C36.2117 6.76737 33.8637 10.8491 33.2032 15.3486C32.9323 17.133 32.9323 18.9478 33.2032 20.7321C33.7454 24.3119 35.3601 27.6445 37.8353 30.2923C40.3105 32.94 43.5305 34.7793 47.0726 35.5684C50.6146 36.3576 54.3131 36.0598 57.6824 34.7141C61.0517 33.3685 63.9344 31.0379 65.9518 28.0284C64.5423 26.9263 62.9423 26.0143 61.444 25.0263C60.0789 27.0745 58.1401 28.6771 55.8689 29.6346C53.5977 30.5921 51.0944 30.8622 48.6706 30.4113C46.2467 29.9604 44.0092 28.8083 42.2367 27.0986C40.4641 25.3889 39.2347 23.1969 38.7015 20.7955H68.7962C68.9322 19.9025 69.0001 19.0006 68.9994 18.0974ZM38.7015 15.3486C39.3219 12.5562 40.8788 10.0584 43.1149 8.26801C45.3509 6.47764 48.1324 5.50183 50.9997 5.50183C53.867 5.50183 56.6485 6.47764 58.8845 8.26801C61.1206 10.0584 62.6775 12.5562 63.2979 15.3486H38.7015Z" fill="url(#paint1_linear)"/>
<path d="M83.5 0C79.841 0 76.2643 1.05568 73.222 3.03355C70.1796 5.01141 67.8085 7.82263 66.4082 11.1117C65.008 14.4008 64.6417 18.02 65.3555 21.5116C66.0693 25.0033 67.8313 28.2106 70.4185 30.7279C73.0058 33.2453 76.3022 34.9596 79.8908 35.6541C83.4795 36.3487 87.1992 35.9922 90.5796 34.6298C93.9601 33.2674 96.8494 30.9603 98.8822 28.0003C100.915 25.0402 102 21.5601 102 18C102 13.2261 100.051 8.64773 96.5815 5.27208C93.1121 1.89642 88.4065 0 83.5 0V0ZM83.5 30.614C80.9385 30.614 78.4345 29.8749 76.3046 28.4903C74.1748 27.1056 72.5148 25.1376 71.5346 22.835C70.5543 20.5324 70.2978 17.9987 70.7976 15.5543C71.2973 13.1099 72.5308 10.8646 74.342 9.10226C76.1533 7.33994 78.461 6.13978 80.9733 5.65356C83.4856 5.16734 86.0897 5.41689 88.4563 6.37065C90.8228 7.32441 92.8455 8.93954 94.2686 11.0118C95.6917 13.0841 96.4513 15.5204 96.4513 18.0127C96.4478 21.3537 95.0822 24.557 92.6541 26.9194C90.226 29.2819 86.9338 30.6106 83.5 30.614Z" fill="url(#paint2_linear)"/>
<defs>
<linearGradient id="paint0_linear" x1="-0.0467417" y1="17.9996" x2="35.9998" y2="17.9996" gradientUnits="userSpaceOnUse">
<stop stop-color="#7E8BC0"/>
<stop offset="0.25" stop-color="#325BA3"/>
<stop offset="1" stop-color="#24427C"/>
</linearGradient>
<linearGradient id="paint1_linear" x1="951.36" y1="510.12" x2="1971.96" y2="510.12" gradientUnits="userSpaceOnUse">
<stop stop-color="#7E8BC0"/>
<stop offset="0.25" stop-color="#325BA3"/>
<stop offset="1" stop-color="#24427C"/>
</linearGradient>
<linearGradient id="paint2_linear" x1="1952.74" y1="510.12" x2="3001.69" y2="510.12" gradientUnits="userSpaceOnUse">
<stop stop-color="#7E8BC0"/>
<stop offset="0.25" stop-color="#325BA3"/>
<stop offset="1" stop-color="#24427C"/>
</linearGradient>
</defs>
</svg>
